…
##  4 California     45             46.8     53.7      1        0
##  5 Maine          02             51.8     49.8      0        1
##  6 Nebraska       02             48.5     51.3      1        0
##  7 New Mexico     02             50.3     48.9      0        1
##  8 New York       03             45.9     56.0      1        0
##  9 New York       04             48.1     62.3      1        0
## 10 New York       17             49.5     67.7      1        0
## 11 New York       19             48.9     50.7      1        0
## 12 North Carolina 13             51.4     49.8      0        1
## 13 Ohio           01             52.5     48.0      0        1
## 14 Oregon         05             49.1     52.1      1        0
## 15 Virginia       02             48.3     50.1      1        0
## 16 Washington     03             50.5     38.2      0        1

## # A tibble: 33 × 7
##    state      district_num st_cd_fips dem_2p   fit pred_d winner_d
##    <chr>      <chr>        <chr>       <dbl> <dbl>  <dbl>    <dbl>
##  1 Arizona    04           0404         56.1  48.2      0        1
##  2 Arizona    09           0409          0    67.0      1        0
##  3 California 04           0604         67.5  34.9      0        1
##  4 California 05           0605         38.4  79.8      1        0
##  5 California 08           0608         75.7  16.9      0        1
##  6 California 13           0613         49.6  68.7      1        0
##  7 California 20           0620         32.5  79.8      1        0
##  8 California 27           0627         45.8  66.5      1        0
##  9 California 40           0640         42.8  57.2      1        0
## 10 California 42           0642         66.8  31.2      0        1
## # … with 23 more rows
…
